Day 2
…
The convert_output function currently accepts output from Stock Synthesis (Report.sso) version 3.30 and higher, Beaufort Assessment Model (BAM; output.rda), or Fishereies Integrated Modelling System (FIMS; R object). We are actively working on expanding the convert_output function to be compatiable with all major U.S. stock assessment models. This function takes a lot of resources to develop, so any contribution to the package is welcome! If you have a model that is not currently compatible with asar::convert_output(), please navigate to our article describing the function and how to get your output in the same format as those produced from the converter!

Let’s try it out!

We have uploaded an example Report.sso file in the workshop GitHub, but if you have a compatible output file, we encourage you to use your own.

# Identify output file
output_file <- here::here("example_output", "Report.sso")
# convert the output
petrale <- asar::convert_output(output_file)

petrale

# A tibble: 591,109 × 33
   label estimate  year fleet sex   area  growth_pattern uncertainty module_name
   <chr>    <dbl> <dbl> <chr> <chr> <chr> <chr>                <dbl> <chr>      
 1 spaw…     22.9    NA <NA>  <NA>  <NA>  <NA>                  2.39 DERIVED_QU…
 2 spaw…     22.9    NA <NA>  <NA>  <NA>  <NA>                  2.39 DERIVED_QU…
 3 spaw…     22.9  1876 <NA>  <NA>  <NA>  <NA>                  3.42 DERIVED_QU…
 4 spaw…     22.9  1877 <NA>  <NA>  <NA>  <NA>                  3.42 DERIVED_QU…
 5 spaw…     22.9  1878 <NA>  <NA>  <NA>  <NA>                  3.42 DERIVED_QU…
 6 spaw…     22.9  1879 <NA>  <NA>  <NA>  <NA>                  3.42 DERIVED_QU…
 7 spaw…     22.9  1880 <NA>  <NA>  <NA>  <NA>                  3.42 DERIVED_QU…
 8 spaw…     22.9  1881 <NA>  <NA>  <NA>  <NA>                  3.42 DERIVED_QU…
 9 spaw…     22.9  1882 <NA>  <NA>  <NA>  <NA>                  3.42 DERIVED_QU…
10 spaw…     22.9  1883 <NA>  <NA>  <NA>  <NA>                  3.43 DERIVED_QU…
# ℹ 591,099 more rows
# ℹ 24 more variables: uncertainty_label <chr>, time <chr>, era <chr>,
#   month <chr>, season <chr>, subseason <chr>, birthseas <chr>, initial <dbl>,
#   likelihood <chr>, platoon <chr>, age <chr>, bio_pattern <chr>,
#   settlement <chr>, morph <chr>, type <chr>, factor <lgl>, part <lgl>,
#   kind <chr>, nsim <lgl>, bin <lgl>, age_a <lgl>, length_bins <chr>,
#   count <chr>, block <chr>
…
